2.95736e-09
6.99383e-09
1.30323e-08
2.0571e-08
2.88126e-08
3.76715e-08
5.71203e-08
1.16265e-07
1.74782e-07
2.01294e-07
1.97721e-07
1.96664e-07
1.95717e-07
1.94095e-07
1.86249e-07
1.71967e-07
1.96443e-07
2.19044e-07
2.22467e-07
2.29157e-07
2.36293e-07
2.61174e-07
3.33131e-07
2.88144e-07
2.85182e-07
1.05192e-07
2.70287e-07
2.84239e-07
2.91829e-07
2.79052e-07
2.57652e-07
2.46345e-07
2.23501e-07
2.3179e-07
2.23734e-07
2.48168e-07
2.46759e-07
2.66126e-07
2.69334e-07
2.76301e-07
2.84792e-07
2.90517e-07
2.97216e-07
3.05351e-07
3.14054e-07
3.23953e-07
3.32405e-07
3.39771e-07
3.50895e-07
3.60492e-07
3.67744e-07
3.76536e-07
3.88452e-07
4.01197e-07
4.14631e-07
4.22097e-07
4.3347e-07
4.42084e-07
4.50692e-07
4.58594e-07
4.70374e-07
4.81913e-07
4.92068e-07
5.03036e-07
5.14102e-07
5.2777e-07
5.42966e-07
5.53608e-07
5.63477e-07
5.7335e-07
5.84198e-07
5.94067e-07
6.03939e-07
6.13815e-07
6.23694e-07
6.33577e-07
6.44233e-07
6.54118e-07
6.64007e-07
6.74568e-07
6.8569e-07
6.95925e-07
7.05807e-07
7.15693e-07
7.25585e-07
7.35482e-07
7.45384e-07
7.55293e-07
7.65199e-07
7.7668e-07
7.8688e-07
7.97252e-07
8.07698e-07
8.17212e-07
8.26874e-07
8.36731e-07
8.46515e-07
8.56373e-07
8.66116e-07
8.7523e-07
